<?xml version="1.0" encoding="UTF-8" standalone="no"?>
<!-- Created with Inkscape (http://www.inkscape.org/) -->

<svg
   xmlns:dc="http://purl.org/dc/elements/1.1/"
   xmlns:cc="http://creativecommons.org/ns#"
   xmlns:rdf="http://www.w3.org/1999/02/22-rdf-syntax-ns#"
   xmlns:svg="http://www.w3.org/2000/svg"
   xmlns="http://www.w3.org/2000/svg"
   xmlns:sodipodi="http://sodipodi.sourceforge.net/DTD/sodipodi-0.dtd"
   xmlns:inkscape="http://www.inkscape.org/namespaces/inkscape"
   width="297mm"
   height="150mm"
   viewBox="0 -150 400 64.285714"
   version="1.1"
   id="svg8"
   inkscape:version="0.92.4 (5da689c313, 2019-01-14)"
   sodipodi:docname="figure05.svg">
  <defs
     id="defs2" />
  <sodipodi:namedview
     id="base"
     pagecolor="#ffffff"
     bordercolor="#666666"
     borderopacity="1.0"
     inkscape:pageopacity="0.0"
     inkscape:pageshadow="2"
     inkscape:zoom="0.98994949"
     inkscape:cx="449.29268"
     inkscape:cy="651.85121"
     inkscape:document-units="mm"
     inkscape:current-layer="layer1"
     showgrid="false"
     showguides="true"
     inkscape:guide-bbox="true"
     inkscape:window-width="2862"
     inkscape:window-height="2031"
     inkscape:window-x="0"
     inkscape:window-y="55"
     inkscape:window-maximized="0"
     viewbox-height="60"
     viewbox-y="-150">
    <sodipodi:guide
       position="245.85198,52.690278"
       orientation="0,1"
       id="guide868"
       inkscape:locked="false" />
    <sodipodi:guide
       position="101.02788,183.07963"
       orientation="1,0"
       id="guide870"
       inkscape:locked="false" />
    <sodipodi:guide
       position="271.19791,253.43304"
       orientation="0,1"
       id="guide1142"
       inkscape:locked="false" />
    <sodipodi:guide
       position="277.15849,253.43305"
       orientation="1,0"
       id="guide1186"
       inkscape:locked="false" />
  </sodipodi:namedview>
  <metadata
     id="metadata5">
    <rdf:RDF>
      <cc:Work
         rdf:about="">
        <dc:format>image/svg+xml</dc:format>
        <dc:type
           rdf:resource="http://purl.org/dc/dcmitype/StillImage" />
        <dc:title></dc:title>
      </cc:Work>
    </rdf:RDF>
  </metadata>
  <g
     inkscape:label="Ebene 1"
     inkscape:groupmode="layer"
     id="layer1"
     transform="translate(0,-205.09381)">
    <path
       style="fill:none;stroke:#000000;stroke-width:0.26458332px;stroke-linecap:butt;stroke-linejoin:miter;stroke-opacity:1"
       d="M 277.15847,48.575147 V 94.971726"
       id="path1188"
       inkscape:connector-curvature="0" />
    <path
       style="fill:none;stroke:#000000;stroke-width:0.26458332px;stroke-linecap:butt;stroke-linejoin:miter;stroke-opacity:1"
       d="m 277.15849,102.29501 v 46.39658"
       id="path1188-9"
       inkscape:connector-curvature="0" />
    <path
       style="fill:none;stroke:#000000;stroke-width:0.26458332px;stroke-linecap:butt;stroke-linejoin:miter;stroke-opacity:1"
       d="M 96.00595,49.803571 72.571427,74.749998"
       id="path1006"
       inkscape:connector-curvature="0" />
    <path
       style="fill:none;stroke:#000000;stroke-width:0.26458332px;stroke-linecap:butt;stroke-linejoin:miter;stroke-opacity:1"
       d="M 67.090769,83.15997 43.656251,108.1064"
       id="path1006-1"
       inkscape:connector-curvature="0" />
    <path
       style="fill:none;stroke:#000000;stroke-width:0.26458332px;stroke-linecap:butt;stroke-linejoin:miter;stroke-opacity:1"
       d="M 131.63021,85.238839 108.19568,110.18527"
       id="path1006-8"
       inkscape:connector-curvature="0" />
    <path
       style="fill:none;stroke:#000000;stroke-width:0.26458332px;stroke-linecap:butt;stroke-linejoin:miter;stroke-opacity:1"
       d="m 106.96726,50.843005 24.09598,23.906993"
       id="path1029"
       inkscape:connector-curvature="0" />
    <path
       style="fill:none;stroke:#000000;stroke-width:0.26458332px;stroke-linecap:butt;stroke-linejoin:miter;stroke-opacity:1"
       d="m 139.42597,83.868676 24.09598,23.906994"
       id="path1029-7"
       inkscape:connector-curvature="0" />
    <path
       style="fill:none;stroke:#000000;stroke-width:0.26458332px;stroke-linecap:butt;stroke-linejoin:miter;stroke-opacity:1"
       d="M 71.909968,88.168153 98.462797,157.52678"
       id="path1052"
       inkscape:connector-curvature="0" />
    <path
       style="fill:none;stroke:#000000;stroke-width:0.26458332px;stroke-linecap:butt;stroke-linejoin:miter;stroke-opacity:1"
       d="m 167.53795,116.13839 -62.17709,42.04985"
       id="path1054"
       inkscape:connector-curvature="0" />
    <path
       style="fill:none;stroke:#000000;stroke-width:0.26458332px;stroke-linecap:butt;stroke-linejoin:miter;stroke-opacity:1"
       d="m 101.02788,121.33556 v 37.23066"
       id="path1056"
       inkscape:connector-curvature="0" />
    <ellipse
       style="fill:#d9ffff;fill-opacity:1;stroke:#000000;stroke-width:0.26458332;stroke-opacity:1"
       id="path817"
       cx="101.0947"
       cy="44.898014"
       rx="11.244793"
       ry="10.110865" />
    <ellipse
       style="fill:#d9ffff;fill-opacity:1;stroke:#000000;stroke-width:0.26458332;stroke-opacity:1"
       id="path817-3"
       cx="69.222809"
       cy="80.511681"
       rx="11.244793"
       ry="10.110865" />
    <ellipse
       style="fill:#d9ffff;fill-opacity:1;stroke:#000000;stroke-width:0.26458332;stroke-opacity:1"
       id="path817-3-7"
       cx="134.88589"
       cy="80.110771"
       rx="11.244793"
       ry="10.110865" />
    <ellipse
       style="fill:#d9ffff;fill-opacity:1;stroke:#000000;stroke-width:0.26458332;stroke-opacity:1"
       id="path817-5"
       cx="101.69606"
       cy="113.92038"
       rx="11.244793"
       ry="10.110865" />
    <ellipse
       style="fill:#d9ffff;fill-opacity:1;stroke:#000000;stroke-width:0.26458332;stroke-opacity:1"
       id="path817-5-3"
       cx="166.42369"
       cy="111.51495"
       rx="11.244793"
       ry="10.110865" />
    <ellipse
       style="fill:#d9ffff;fill-opacity:1;stroke:#000000;stroke-width:0.26458332;stroke-opacity:1"
       id="path817-5-3-5"
       cx="41.293144"
       cy="113.65309"
       rx="11.244793"
       ry="10.110865" />
    <ellipse
       style="fill:#d9ffff;fill-opacity:1;stroke:#000000;stroke-width:0.26458332;stroke-opacity:1"
       id="path817-5-3-5-6"
       cx="100.89425"
       cy="162.16252"
       rx="11.244793"
       ry="10.110865" />
    <text
       xml:space="preserve"
       style="font-style:normal;font-weight:normal;font-size:10.58333302px;line-height:1.25;font-family:sans-serif;letter-spacing:0px;word-spacing:0px;fill:#000000;fill-opacity:1;stroke:none;stroke-width:0.26458332"
       x="94.747047"
       y="47.370262"
       id="text934"><tspan
         sodipodi:role="line"
         id="tspan932"
         x="94.747047"
         y="47.370262"
         style="font-size:7.05555534px;stroke-width:0.26458332">325</tspan></text>
    <text
       xml:space="preserve"
       style="font-style:normal;font-weight:normal;font-size:10.58333302px;line-height:1.25;font-family:sans-serif;letter-spacing:0px;word-spacing:0px;fill:#000000;fill-opacity:1;stroke:none;stroke-width:0.26458332"
       x="60.537136"
       y="82.411827"
       id="text934-2"><tspan
         sodipodi:role="line"
         id="tspan932-9"
         x="60.537136"
         y="82.411827"
         style="font-size:7.05555534px;stroke-width:0.26458332">8389</tspan></text>
    <text
       xml:space="preserve"
       style="font-style:normal;font-weight:normal;font-size:10.58333302px;line-height:1.25;font-family:sans-serif;letter-spacing:0px;word-spacing:0px;fill:#000000;fill-opacity:1;stroke:none;stroke-width:0.26458332"
       x="127.13029"
       y="82.278191"
       id="text934-1"><tspan
         sodipodi:role="line"
         id="tspan932-2"
         x="127.13029"
         y="82.278191"
         style="font-size:7.05555534px;stroke-width:0.26458332">84ef</tspan></text>
    <text
       xml:space="preserve"
       style="font-style:normal;font-weight:normal;font-size:10.58333302px;line-height:1.25;font-family:sans-serif;letter-spacing:0px;word-spacing:0px;fill:#000000;fill-opacity:1;stroke:none;stroke-width:0.26458332"
       x="33.270275"
       y="116.22142"
       id="text934-1-7"><tspan
         sodipodi:role="line"
         id="tspan932-2-0"
         x="33.270275"
         y="116.22142"
         style="font-size:7.05555534px;stroke-width:0.26458332">f615</tspan></text>
    <text
       xml:space="preserve"
       style="font-style:normal;font-weight:normal;font-size:10.58333302px;line-height:1.25;font-family:sans-serif;letter-spacing:0px;word-spacing:0px;fill:#000000;fill-opacity:1;stroke:none;stroke-width:0.26458332"
       x="93.261536"
       y="116.36581"
       id="text934-1-9"><tspan
         sodipodi:role="line"
         id="tspan932-2-3"
         x="93.261536"
         y="116.36581"
         style="font-size:7.05555534px;stroke-width:0.26458332">922f</tspan></text>
    <text
       xml:space="preserve"
       style="font-style:normal;font-weight:normal;font-size:10.58333302px;line-height:1.25;font-family:sans-serif;letter-spacing:0px;word-spacing:0px;fill:#000000;fill-opacity:1;stroke:none;stroke-width:0.26458332"
       x="158.66811"
       y="113.94963"
       id="text934-1-6"><tspan
         sodipodi:role="line"
         id="tspan932-2-06"
         x="158.66811"
         y="113.94963"
         style="font-size:7.05555534px;stroke-width:0.26458332">a2de</tspan></text>
    <text
       xml:space="preserve"
       style="font-style:normal;font-weight:normal;font-size:10.58333302px;line-height:1.25;font-family:sans-serif;letter-spacing:0px;word-spacing:0px;fill:#000000;fill-opacity:1;stroke:none;stroke-width:0.26458332"
       x="92.481224"
       y="164.86449"
       id="text934-1-2"><tspan
         sodipodi:role="line"
         id="tspan932-2-6"
         x="92.481224"
         y="164.86449"
         style="font-size:7.05555534px;stroke-width:0.26458332">dc85</tspan></text>
    <ellipse
       style="fill:#d9ffff;fill-opacity:1;stroke:#000000;stroke-width:0.26458332;stroke-opacity:1"
       id="path817-5-3-5-6-2"
       cx="244.85292"
       cy="44.47411"
       rx="11.244793"
       ry="10.110865" />
    <text
       xml:space="preserve"
       style="font-style:normal;font-weight:normal;font-size:10.58333302px;line-height:1.25;font-family:sans-serif;letter-spacing:0px;word-spacing:0px;fill:#000000;fill-opacity:1;stroke:none;stroke-width:0.26458332"
       x="236.4399"
       y="47.176075"
       id="text934-1-2-0"><tspan
         sodipodi:role="line"
         id="tspan932-2-6-2"
         x="236.4399"
         y="47.176075"
         style="font-size:7.05555534px;stroke-width:0.26458332">dc85</tspan></text>
    <ellipse
       style="fill:#d9ffff;fill-opacity:1;stroke:#000000;stroke-width:0.26458332;stroke-opacity:1"
       id="path817-5-3-5-3"
       cx="277.35895"
       cy="44.738693"
       rx="11.244793"
       ry="10.110865" />
    <text
       xml:space="preserve"
       style="font-style:normal;font-weight:normal;font-size:10.58333302px;line-height:1.25;font-family:sans-serif;letter-spacing:0px;word-spacing:0px;fill:#000000;fill-opacity:1;stroke:none;stroke-width:0.26458332"
       x="269.33609"
       y="47.307022"
       id="text934-1-7-7"><tspan
         sodipodi:role="line"
         id="tspan932-2-0-5"
         x="269.33609"
         y="47.307022"
         style="font-size:7.05555534px;stroke-width:0.26458332">f615</tspan></text>
    <ellipse
       style="fill:#d9ffff;fill-opacity:1;stroke:#000000;stroke-width:0.26458332;stroke-opacity:1"
       id="path817-3-7-9"
       cx="306.7655"
       cy="44.927681"
       rx="11.244793"
       ry="10.110865" />
    <text
       xml:space="preserve"
       style="font-style:normal;font-weight:normal;font-size:10.58333302px;line-height:1.25;font-family:sans-serif;letter-spacing:0px;word-spacing:0px;fill:#000000;fill-opacity:1;stroke:none;stroke-width:0.26458332"
       x="299.00989"
       y="47.0951"
       id="text934-1-22"><tspan
         sodipodi:role="line"
         id="tspan932-2-8"
         x="299.00989"
         y="47.0951"
         style="font-size:7.05555534px;stroke-width:0.26458332">84ef</tspan></text>
    <ellipse
       style="fill:#d9ffff;fill-opacity:1;stroke:#000000;stroke-width:0.26458332;stroke-opacity:1"
       id="path817-5-9"
       cx="336.70117"
       cy="44.625298"
       rx="11.244793"
       ry="10.110865" />
    <text
       xml:space="preserve"
       style="font-style:normal;font-weight:normal;font-size:10.58333302px;line-height:1.25;font-family:sans-serif;letter-spacing:0px;word-spacing:0px;fill:#000000;fill-opacity:1;stroke:none;stroke-width:0.26458332"
       x="328.26663"
       y="47.070724"
       id="text934-1-9-7"><tspan
         sodipodi:role="line"
         id="tspan932-2-3-3"
         x="328.26663"
         y="47.070724"
         style="font-size:7.05555534px;stroke-width:0.26458332">922f</tspan></text>
    <ellipse
       style="fill:#d9ffff;fill-opacity:1;stroke:#000000;stroke-width:0.26458332;stroke-opacity:1"
       id="path817-3-6"
       cx="277.11328"
       cy="99.583054"
       rx="11.244793"
       ry="10.110865" />
    <text
       xml:space="preserve"
       style="font-style:normal;font-weight:normal;font-size:10.58333302px;line-height:1.25;font-family:sans-serif;letter-spacing:0px;word-spacing:0px;fill:#000000;fill-opacity:1;stroke:none;stroke-width:0.26458332"
       x="268.42761"
       y="101.48321"
       id="text934-2-1"><tspan
         sodipodi:role="line"
         id="tspan932-9-2"
         x="268.42761"
         y="101.48321"
         style="font-size:7.05555534px;stroke-width:0.26458332">8389</tspan></text>
    <ellipse
       style="fill:#d9ffff;fill-opacity:1;stroke:#000000;stroke-width:0.26458332;stroke-opacity:1"
       id="path817-9"
       cx="277.88522"
       cy="154.0108"
       rx="11.244793"
       ry="10.110865" />
    <text
       xml:space="preserve"
       style="font-style:normal;font-weight:normal;font-size:10.58333302px;line-height:1.25;font-family:sans-serif;letter-spacing:0px;word-spacing:0px;fill:#000000;fill-opacity:1;stroke:none;stroke-width:0.26458332"
       x="271.53757"
       y="156.48305"
       id="text934-3"><tspan
         sodipodi:role="line"
         id="tspan932-1"
         x="271.53757"
         y="156.48305"
         style="font-size:7.05555534px;stroke-width:0.26458332">325</tspan></text>
    <text
       xml:space="preserve"
       style="font-style:normal;font-weight:normal;font-size:10.58333302px;line-height:1.25;font-family:sans-serif;letter-spacing:0px;word-spacing:0px;fill:#000000;fill-opacity:1;stroke:none;stroke-width:0.26458332"
       x="102.08425"
       y="9.5968866"
       id="text1207"><tspan
         sodipodi:role="line"
         id="tspan1205"
         x="102.08425"
         y="9.5968866"
         style="text-align:center;text-anchor:middle;stroke-width:0.26458332">Hasse Diagram of File</tspan><tspan
         sodipodi:role="line"
         x="102.08425"
         y="22.826054"
         style="text-align:center;text-anchor:middle;stroke-width:0.26458332"
         id="tspan1949"> aHO2.txt</tspan></text>
    <text
       xml:space="preserve"
       style="font-style:normal;font-weight:normal;font-size:10.58333302px;line-height:1.25;font-family:sans-serif;letter-spacing:0px;word-spacing:0px;fill:#000000;fill-opacity:1;stroke:none;stroke-width:0.26458332"
       x="282.767"
       y="9.0421028"
       id="text1207-4"><tspan
         sodipodi:role="line"
         id="tspan1205-7"
         x="282.767"
         y="9.0421028"
         style="text-align:center;text-anchor:middle;stroke-width:0.26458332">Hasse Diagram of File</tspan><tspan
         sodipodi:role="line"
         x="282.767"
         y="22.271269"
         style="text-align:center;text-anchor:middle;stroke-width:0.26458332"
         id="tspan1951">dPW2.txt</tspan></text>
  </g>
</svg>
